id      ,url_image                                              ,name                   ,size       ,regprice       ,savings        ,saleprice
0001       ,png/Avion Espresso.png								    ,Avion Espresso         ,1.75L      ,46.95          ,4.00           ,42.95
0002       ,png/Avion Reposado.png								    ,Avion Reposado         ,1.75L      ,46.95          ,4.00           ,42.95
0003       ,png/AvionSilver.png								    ,Avion Silver           ,1.75L      ,46.95          ,4.00           ,42.95
0004       ,png/BakersBourbon.png								    ,Bakers Bourbon,1.75L,46.95,4.00,42.95
0005       ,png/Barrel Rested Cardinal Gin.png						,Barrel Rested Cardinal Gin,1.75L,46.95,4.00,42.95
0006       ,png/Beefeater.png								        ,Beefeater,1.75L,46.95,4.00,42.95
0007       ,png/Blackheart Spiced Rum.png								,Blackheart Spiced Rum,1.75L,46.95,4.00,42.95
0008       ,png/BluecoatGin.png								,Bluecoat Gin,1.75L,46.95,4.00,42.95
0009       ,png/BulleitRye.png								,Bulleit Rye,1.75L,46.95,4.00,42.95
0010      ,png/CalicoJack CoconutRum.png								,Calico Jack Coconut Rum,1.75L,46.95,4.00,42.95
0011      ,png/CatdaddySpicedMoonshine _horrible.png								,Catdaddy Spiced Moonshine  horrible,1.75L,46.95,4.00,42.95
0012      ,png/CazadoresReposado.png								,Cazadores Reposado,1.75L,46.95,4.00,42.95
0013      ,png/Chambord_Royale.png								,Chambord Royale,1.75L,46.95,4.00,42.95
0014      ,png/ChivasRegal.png								,Chivas Regal,1.75L,46.95,4.00,42.95
0015      ,png/CourvoisierXO.png								,Courvoisier XO,1.75L,46.95,4.00,42.95
0016      ,png/DUsseVSOP.png								,Dusse VSOP,1.75L,46.95,4.00,42.95
0017      ,png/DeepEddyVodka.png								,Deep Eddy Vodka,1.75L,46.95,4.00,42.95
0018      ,png/Deep_eddy_rubyred.png								,Deep Eddy Ruby Red,1.75L,46.95,4.00,42.95
0019      ,png/Dewars12Y.png								,Dewars 12Y,1.75L,46.95,4.00,42.95
0020      ,png/DoubleCross_Vodka2.png								,Double Cross Vodka2,1.75L,46.95,4.00,42.95
0021      ,png/ElijahCraig.png								,ElijahCraig,1.75L,46.95,4.00,42.95
0022      ,png/Elijah_Craig.png								,Elijah Craig,1.75L,46.95,4.00,42.95
0023      ,png/EvanWilliamsBlack.png								,Evan Williams Black,1.75L,46.95,4.00,42.95
0024      ,png/Evan Williams Honey Reserve.png								,Evan Williams Honey Reserve,1.75L,46.95,4.00,42.95
0025      ,png/EvanWilliamsSingleBarrelVintage.png								,EvanWilliams Single Barrel Vintage,1.75L,46.95,4.00,42.95
0026      ,png/FireballCinnamonWhiskey.png								,Fireball Cinnamon Whiskey,1.75L,46.95,4.00,42.95
0027      ,png/Firefly-Lemonade.png								,Firefly Lemonade,1.75L,46.95,4.00,42.95
0028      ,png/FourRosesSingleBarrel.png								,FourRoses Single Barrel,1.75L,46.95,4.00,42.95
0029      ,png/Frangelico.png								    ,Frangelico,1.75L,46.95,4.00,42.95
0030      ,png/Fratello.png								        ,Fratello,1.75L,46.95,4.00,42.95
0031      ,png/GDickel_12.png								,GDickel 12,1.75L,46.95,4.00,42.95
0032      ,png/GentlemanJack.png								,Gentleman Jack,1.75L,46.95,4.00,42.95
0033      ,png/GlenevitNadurra16Y.png								,Glenevit Nadurra 16Y,1.75L,46.95,4.00,42.95
0034      ,png/GlenevitNadurraOloroso.png								,Glenevit Nadurra Oloroso,1.75L,46.95,4.00,42.95
0035      ,png/GoslingsBlackSeal.png								,Goslings Black Seal,1.75L,46.95,4.00,42.95
0036      ,png/HighlandPark.png								,Highland Park,1.75L,46.95,4.00,42.95
0037      ,png/HighlandPark12Y.png								,Highland Park 12Y,1.75L,46.95,4.00,42.95
0038      ,png/HornitosBlackBarrel.png								,Hornitos Black Barrel,1.75L,46.95,4.00,42.95
0039      ,png/JeffersonsSmallBatchBourbon.png								,Jeffersons Small Batch Bourbon,1.75L,46.95,4.00,42.95
0040      ,png/Jim-Beam-KY-Fire.png								,Jim-Beam-KY-Fire,1.75L,46.95,4.00,42.95
0041      ,png/Jim Beam Black.png								,Jim Beam Black,1.75L,46.95,4.00,42.95
0042      ,png/JimBeamKYFire.png								,JimBeam KY Fire,1.75L,46.95,4.00,42.95
0043      ,png/Kapali Coffee.png								,Kapali Coffee,1.75L,46.95,4.00,42.95
0044      ,png/KnobCreek.png								,Knob Creek,1.75L,46.95,4.00,42.95
0045      ,png/KnobCreekRye.png								,Knob Creek Rye,1.75L,46.95,4.00,42.95
0046      ,png/KnobCreekSingleBarrelReserve.png								,Knob Creek Single Barrel Reserve,1.75L,46.95,4.00,42.95
0047      ,png/LarcenyBourbon.png								,Larceny Bourbon,1.75L,46.95,4.00,42.95
0048      ,png/LexingtonBourbon.png								,Lexington Bourbon,1.75L,46.95,4.00,42.95
0049      ,png/Lunazul Reposado.png								,Lunazul Reposado,1.75L,46.95,4.00,42.95
0050      ,png/Macallan12Y.png								,Macallan 12Y,1.75L,46.95,4.00,42.95
0051      ,png/Makers46.png								,Makers 46,1.75L,46.95,4.00,42.95
0052      ,png/Margaritaville Skinny Margarita.png								,Margaritaville Skinny Margarita,1.75L,46.95,4.00,42.95
0053      ,png/Midnight Moon Apple Pie.png								,Midnight Moon Apple Pie,1.75L,46.95,4.00,42.95
0054      ,png/MidnightMoonCranberry.png								,Midnight Moon Cranberry,1.75L,46.95,4.00,42.95
0055      ,png/MilagroSilver.png								,Milagro Silver,1.75L,46.95,4.00,42.95
0056      ,png/MonkeyShoulder.png								,Monkey Shoulder,1.75L,46.95,4.00,42.95
0057      ,png/PamaPomegranate.png								,Pama Pomegranate,1.75L,46.95,4.00,42.95
0058      ,png/PinnacleWhipped.png								,Pinnacle Whipped,1.75L,46.95,4.00,42.95
0059      ,png/PopcornSutton_whitewhiskey.png								,Popcorn Sutton White Whiskey,1.75L,46.95,4.00,42.95
0060      ,png/PurusOrganicWheatVodka.png								,Purus Organic Wheat Vodka,1.75L,46.95,4.00,42.95
0061      ,png/RichAndRareCanadian.png								,Rich And Rare Canadian,1.75L,46.95,4.00,42.95
0062      ,png/SkinnygirlSweetAriata.png								,Skinnygirl Sweet Ariata,1.75L,46.95,4.00,42.95
0063      ,png/SmirnoffVanilla.png								,Smirnoff Vanilla,1.75L,46.95,4.00,42.95
0064      ,png/Smirnoff_kissed_caramel.png								,Smirnoff Kissed Caramel,1.75L,46.95,4.00,42.95
0065      ,png/StolichnayaGold.png								,Stolichnaya Gold,1.75L,46.95,4.00,42.95
0066      ,png/Tres Generaciones Plata.png								,Tres Generaciones Plata,1.75L,46.95,4.00,42.95
0067      ,png/TresGeneracionesTequilaAnejo.png								,Tres Generaciones Tequila Anejo,1.75L,46.95,4.00,42.95
0068      ,png/Tuaca.png								,Tuaca,1.75L,46.95,4.00,42.95
0069      ,png/Tullamore-Dew-12.png								,Tullamore Dew 12,1.75L,46.95,4.00,42.95
0070      ,png/TullamoreDew12Y.png								,Tullamore Dew 12Y,1.75L,46.95,4.00,42.95
0071      ,png/TwentyGrandVodka.png								,Twenty Grand Vodka,1.75L,46.95,4.00,42.95
0072      ,png/WildTurkey101.png								,Wild Turkey 101,1.75L,46.95,4.00,42.95
0073      ,png/WildTurkeyAmericanHoney.png								,Wild Turkey American Honey,1.75L,46.95,4.00,42.95
0074      ,png/WildTurkeyRusselsReserve.png								,Wild Turkey Russels Reserve,1.75L,46.95,4.00,42.95
0075      ,png/ZayaRum.png								,Zaya Rum,1.75L,46.95,4.00,42.95
0076      ,png/herradura-blanco.png								,Herradura Blanco,1.75L,46.95,4.00,42.95
0077      ,png/jim_beam_choice.png								,Jim Beam Choice,1.75L,46.95,4.00,42.95
0078      ,png/rich&rare_reserve.png								,Rich & Rare Reserve,1.75L,46.95,4.00,42.95
0079      ,png/southern-comfort-100.jpg,Southern Comfort 100,1.75L,46.95,4.00,42.95
0080      ,png/southern-comfort-100.png								,Southern Comfort 100,1.75L,46.95,4.00,42.95
0081      ,png/stolichnaya-100-proof.png								,Stolichnaya 100 proof,1.75L,46.95,4.00,42.95
0082      ,png/Avion Espresso.png								,Avion Espresso,1.75L,46.95,4.00,42.95
0083      ,png/Avion Reposado.png								,Avion Reposado,1.75L,46.95,4.00,42.95
0084      ,png/AvionSilver.png								,Avion Silver,1.75L,46.95,4.00,42.95
0085      ,png/BakersBourbon.png								,Bakers Bourbon,1.75L,46.95,4.00,42.95
0086      ,png/Barrel Rested Cardinal Gin.png								,Barrel Rested Cardinal Gin,1.75L,46.95,4.00,42.95
0087      ,png/Beefeater.png								,Beefeater,1.75L,46.95,4.00,42.95
0088      ,png/Blackheart Spiced Rum.png								,Blackheart Spiced Rum,1.75L,46.95,4.00,42.95
0089      ,png/BluecoatGin.png								,Bluecoat Gin,1.75L,46.95,4.00,42.95
0090      ,png/BulleitRye.png								,Bulleit Rye,1.75L,46.95,4.00,42.95
0091      ,png/CalicoJack CoconutRum.png								,Calico Jack Coconut Rum,1.75L,46.95,4.00,42.95
0092      ,png/CatdaddySpicedMoonshine _horrible.png								,Catdaddy Spiced Moonshine  horrible,1.75L,46.95,4.00,42.95
0093      ,png/CazadoresReposado.png								,Cazadores Reposado,1.75L,46.95,4.00,42.95
0094      ,png/Chambord_Royale.png								,Chambord Royale,1.75L,46.95,4.00,42.95
0095      ,png/ChivasRegal.png								,Chivas Regal,1.75L,46.95,4.00,42.95
0096      ,png/CourvoisierXO.png								,Courvoisier XO,1.75L,46.95,4.00,42.95
0097      ,png/DUsseVSOP.png								,Dusse VSOP,1.75L,46.95,4.00,42.95
0098      ,png/DeepEddyVodka.png								,Deep Eddy Vodka,1.75L,46.95,4.00,42.95
0099      ,png/Deep_eddy_rubyred.png								,Deep Eddy Ruby Red,1.75L,46.95,4.00,42.95
0100     ,png/Dewars12Y.png								,Dewars 12Y,1.75L,46.95,4.00,42.95
0101     ,png/DoubleCross_Vodka2.png								,Double Cross Vodka2,1.75L,46.95,4.00,42.95
0102     ,png/ElijahCraig.png								,ElijahCraig,1.75L,46.95,4.00,42.95
0103     ,png/Elijah_Craig.png								,Elijah Craig,1.75L,46.95,4.00,42.95
0104     ,png/EvanWilliamsBlack.png								,Evan Williams Black,1.75L,46.95,4.00,42.95
0105     ,png/Evan Williams Honey Reserve.png								,Evan Williams Honey Reserve,1.75L,46.95,4.00,42.95
0106     ,png/EvanWilliamsSingleBarrelVintage.png								,EvanWilliams Single Barrel Vintage,1.75L,46.95,4.00,42.95
0107     ,png/FireballCinnamonWhiskey.png								,Fireball Cinnamon Whiskey,1.75L,46.95,4.00,42.95
0108     ,png/Firefly-Lemonade.png								,Firefly Lemonade,1.75L,46.95,4.00,42.95
0109     ,png/FourRosesSingleBarrel.png								,FourRoses Single Barrel,1.75L,46.95,4.00,42.95
0110     ,png/Frangelico.png								,Frangelico,1.75L,46.95,4.00,42.95
0111     ,png/Fratello.png								,Fratello,1.75L,46.95,4.00,42.95
0112     ,png/GDickel_12.png								,GDickel 12,1.75L,46.95,4.00,42.95
0113     ,png/GentlemanJack.png								,Gentleman Jack,1.75L,46.95,4.00,42.95
0114     ,png/GlenevitNadurra16Y.png								,Glenevit Nadurra 16Y,1.75L,46.95,4.00,42.95
0115     ,png/GlenevitNadurraOloroso.png								,Glenevit Nadurra Oloroso,1.75L,46.95,4.00,42.95
0116     ,png/GoslingsBlackSeal.png								,Goslings Black Seal,1.75L,46.95,4.00,42.95
0117     ,png/HighlandPark.png								,Highland Park,1.75L,46.95,4.00,42.95
0118     ,png/HighlandPark12Y.png								,Highland Park 12Y,1.75L,46.95,4.00,42.95
0119     ,png/HornitosBlackBarrel.png								,Hornitos Black Barrel,1.75L,46.95,4.00,42.95
0120     ,png/JeffersonsSmallBatchBourbon.png								,Jeffersons Small Batch Bourbon,1.75L,46.95,4.00,42.95
0121     ,png/Jim-Beam-KY-Fire.png								,Jim-Beam-KY-Fire,1.75L,46.95,4.00,42.95
0122     ,png/Jim Beam Black.png								,Jim Beam Black,1.75L,46.95,4.00,42.95
0123     ,png/JimBeamKYFire.png								,JimBeam KY Fire,1.75L,46.95,4.00,42.95
0124     ,png/Kapali Coffee.png								,Kapali Coffee,1.75L,46.95,4.00,42.95
0125     ,png/KnobCreek.png								,Knob Creek,1.75L,46.95,4.00,42.95
0126     ,png/KnobCreekRye.png								,Knob Creek Rye,1.75L,46.95,4.00,42.95
0127     ,png/KnobCreekSingleBarrelReserve.png								,Knob Creek Single Barrel Reserve,1.75L,46.95,4.00,42.95
0128     ,png/LarcenyBourbon.png								,Larceny Bourbon,1.75L,46.95,4.00,42.95
0129     ,png/LexingtonBourbon.png								,Lexington Bourbon,1.75L,46.95,4.00,42.95
0130     ,png/Lunazul Reposado.png								,Lunazul Reposado,1.75L,46.95,4.00,42.95
0131     ,png/Macallan12Y.png								,Macallan 12Y,1.75L,46.95,4.00,42.95
0132     ,png/Makers46.png								,Makers 46,1.75L,46.95,4.00,42.95
0133     ,png/Margaritaville Skinny Margarita.png								,Margaritaville Skinny Margarita,1.75L,46.95,4.00,42.95
0134     ,png/Midnight Moon Apple Pie.png								,Midnight Moon Apple Pie,1.75L,46.95,4.00,42.95
0135     ,png/MidnightMoonCranberry.png								,Midnight Moon Cranberry,1.75L,46.95,4.00,42.95
0136     ,png/MilagroSilver.png								,Milagro Silver,1.75L,46.95,4.00,42.95
0137     ,png/MonkeyShoulder.png								,Monkey Shoulder,1.75L,46.95,4.00,42.95
0138     ,png/PamaPomegranate.png								,Pama Pomegranate,1.75L,46.95,4.00,42.95
0139     ,png/PinnacleWhipped.png								,Pinnacle Whipped,1.75L,46.95,4.00,42.95
0140     ,png/PopcornSutton_whitewhiskey.png								,Popcorn Sutton White Whiskey,1.75L,46.95,4.00,42.95
0141     ,png/PurusOrganicWheatVodka.png								,Purus Organic Wheat Vodka,1.75L,46.95,4.00,42.95
0142     ,png/RichAndRareCanadian.png								,Rich And Rare Canadian,1.75L,46.95,4.00,42.95
0143     ,png/SkinnygirlSweetAriata.png								,Skinnygirl Sweet Ariata,1.75L,46.95,4.00,42.95
0144     ,png/SmirnoffVanilla.png								,Smirnoff Vanilla,1.75L,46.95,4.00,42.95
0145     ,png/Smirnoff_kissed_caramel.png								,Smirnoff Kissed Caramel,1.75L,46.95,4.00,42.95
0146     ,png/StolichnayaGold.png								,Stolichnaya Gold,1.75L,46.95,4.00,42.95
0147     ,png/Tres Generaciones Plata.png								,Tres Generaciones Plata,1.75L,46.95,4.00,42.95
0148     ,png/TresGeneracionesTequilaAnejo.png								,Tres Generaciones Tequila Anejo,1.75L,46.95,4.00,42.95
0149     ,png/Tuaca.png								,Tuaca,1.75L,46.95,4.00,42.95
0150     ,png/Tullamore-Dew-12.png								,Tullamore Dew 12,1.75L,46.95,4.00,42.95
0151     ,png/TullamoreDew12Y.png								,Tullamore Dew 12Y,1.75L,46.95,4.00,42.95
0152     ,png/TwentyGrandVodka.png								,Twenty Grand Vodka,1.75L,46.95,4.00,42.95
0153     ,png/WildTurkey101.png								,Wild Turkey 101,1.75L,46.95,4.00,42.95
0154     ,png/WildTurkeyAmericanHoney.png								,Wild Turkey American Honey,1.75L,46.95,4.00,42.95
0155     ,png/WildTurkeyRusselsReserve.png								,Wild Turkey Russels Reserve,1.75L,46.95,4.00,42.95
0156     ,png/ZayaRum.png								,Zaya Rum,1.75L,46.95,4.00,42.95
0157     ,png/herradura-blanco.png								,Herradura Blanco,1.75L,46.95,4.00,42.95
0158     ,png/jim_beam_choice.png								,Jim Beam Choice,1.75L,46.95,4.00,42.95
0159     ,png/rich&rare_reserve.png								,Rich & Rare Reserve,1.75L,46.95,4.00,42.95
0160     ,png/southern-comfort-100.jpg,Southern Comfort 100,1.75L,46.95,4.00,42.95
0161     ,png/southern-comfort-100.png								,Southern Comfort 100,1.75L,46.95,4.00,42.95
0162     ,png/stolichnaya-100-proof.png								,Stolichnaya 100 proof,1.75L,46.95,4.00,42.95
0163     ,png/Avion Espresso.png								,Avion Espresso,1.75L,46.95,4.00,42.95
0164     ,png/Avion Reposado.png								,Avion Reposado,1.75L,46.95,4.00,42.95
0165     ,png/AvionSilver.png								,Avion Silver,1.75L,46.95,4.00,42.95
0166     ,png/BakersBourbon.png								,Bakers Bourbon,1.75L,46.95,4.00,42.95
0167     ,png/Barrel Rested Cardinal Gin.png								,Barrel Rested Cardinal Gin,1.75L,46.95,4.00,42.95
0168     ,png/Beefeater.png								,Beefeater,1.75L,46.95,4.00,42.95
0169     ,png/Blackheart Spiced Rum.png								,Blackheart Spiced Rum,1.75L,46.95,4.00,42.95
0170     ,png/BluecoatGin.png								,Bluecoat Gin,1.75L,46.95,4.00,42.95
0171     ,png/BulleitRye.png								,Bulleit Rye,1.75L,46.95,4.00,42.95
0172     ,png/CalicoJack CoconutRum.png								,Calico Jack Coconut Rum,1.75L,46.95,4.00,42.95
0173     ,png/CatdaddySpicedMoonshine _horrible.png								,Catdaddy Spiced Moonshine  horrible,1.75L,46.95,4.00,42.95
0174     ,png/CazadoresReposado.png								,Cazadores Reposado,1.75L,46.95,4.00,42.95
0175     ,png/Chambord_Royale.png								,Chambord Royale,1.75L,46.95,4.00,42.95
0176     ,png/ChivasRegal.png								,Chivas Regal,1.75L,46.95,4.00,42.95
0177     ,png/CourvoisierXO.png								,Courvoisier XO,1.75L,46.95,4.00,42.95
0178     ,png/DUsseVSOP.png								,Dusse VSOP,1.75L,46.95,4.00,42.95
0179     ,png/DeepEddyVodka.png								,Deep Eddy Vodka,1.75L,46.95,4.00,42.95
0180     ,png/Deep_eddy_rubyred.png								,Deep Eddy Ruby Red,1.75L,46.95,4.00,42.95
0181     ,png/Dewars12Y.png								,Dewars 12Y,1.75L,46.95,4.00,42.95
0182     ,png/DoubleCross_Vodka2.png								,Double Cross Vodka2,1.75L,46.95,4.00,42.95
0183     ,png/ElijahCraig.png								,ElijahCraig,1.75L,46.95,4.00,42.95
0184     ,png/Elijah_Craig.png								,Elijah Craig,1.75L,46.95,4.00,42.95
0185     ,png/EvanWilliamsBlack.png								,Evan Williams Black,1.75L,46.95,4.00,42.95
0186     ,png/Evan Williams Honey Reserve.png								,Evan Williams Honey Reserve,1.75L,46.95,4.00,42.95
0187     ,png/EvanWilliamsSingleBarrelVintage.png								,EvanWilliams Single Barrel Vintage,1.75L,46.95,4.00,42.95
0188     ,png/FireballCinnamonWhiskey.png								,Fireball Cinnamon Whiskey,1.75L,46.95,4.00,42.95
0189     ,png/Firefly-Lemonade.png								,Firefly Lemonade,1.75L,46.95,4.00,42.95
0190     ,png/FourRosesSingleBarrel.png								,FourRoses Single Barrel,1.75L,46.95,4.00,42.95
0191     ,png/Frangelico.png								,Frangelico,1.75L,46.95,4.00,42.95
0192     ,png/Fratello.png								,Fratello,1.75L,46.95,4.00,42.95
0193     ,png/GDickel_12.png								,GDickel 12,1.75L,46.95,4.00,42.95
0194     ,png/GentlemanJack.png								,Gentleman Jack,1.75L,46.95,4.00,42.95
0195     ,png/GlenevitNadurra16Y.png								,Glenevit Nadurra 16Y,1.75L,46.95,4.00,42.95
0196     ,png/GlenevitNadurraOloroso.png								,Glenevit Nadurra Oloroso,1.75L,46.95,4.00,42.95
0197     ,png/GoslingsBlackSeal.png								,Goslings Black Seal,1.75L,46.95,4.00,42.95
0198     ,png/HighlandPark.png								,Highland Park,1.75L,46.95,4.00,42.95
0199     ,png/HighlandPark12Y.png								,Highland Park 12Y,1.75L,46.95,4.00,42.95
0200     ,png/HornitosBlackBarrel.png								,Hornitos Black Barrel,1.75L,46.95,4.00,42.95
0201     ,png/JeffersonsSmallBatchBourbon.png								,Jeffersons Small Batch Bourbon,1.75L,46.95,4.00,42.95
0202     ,png/Jim-Beam-KY-Fire.png								,Jim-Beam-KY-Fire,1.75L,46.95,4.00,42.95
0203     ,png/Jim Beam Black.png								,Jim Beam Black,1.75L,46.95,4.00,42.95
0204     ,png/JimBeamKYFire.png								,JimBeam KY Fire,1.75L,46.95,4.00,42.95
0205     ,png/Kapali Coffee.png								,Kapali Coffee,1.75L,46.95,4.00,42.95
0206     ,png/KnobCreek.png								,Knob Creek,1.75L,46.95,4.00,42.95
0207     ,png/KnobCreekRye.png								,Knob Creek Rye,1.75L,46.95,4.00,42.95
0208     ,png/KnobCreekSingleBarrelReserve.png								,Knob Creek Single Barrel Reserve,1.75L,46.95,4.00,42.95
0209     ,png/LarcenyBourbon.png								,Larceny Bourbon,1.75L,46.95,4.00,42.95
0210     ,png/LexingtonBourbon.png								,Lexington Bourbon,1.75L,46.95,4.00,42.95
0211     ,png/Lunazul Reposado.png								,Lunazul Reposado,1.75L,46.95,4.00,42.95
0212     ,png/Macallan12Y.png								,Macallan 12Y,1.75L,46.95,4.00,42.95
0213     ,png/Makers46.png								,Makers 46,1.75L,46.95,4.00,42.95
0214     ,png/Margaritaville Skinny Margarita.png								,Margaritaville Skinny Margarita,1.75L,46.95,4.00,42.95
0215     ,png/Midnight Moon Apple Pie.png								,Midnight Moon Apple Pie,1.75L,46.95,4.00,42.95
0216     ,png/MidnightMoonCranberry.png								,Midnight Moon Cranberry,1.75L,46.95,4.00,42.95
0217     ,png/MilagroSilver.png								,Milagro Silver,1.75L,46.95,4.00,42.95
0218     ,png/MonkeyShoulder.png								,Monkey Shoulder,1.75L,46.95,4.00,42.95
0219     ,png/PamaPomegranate.png								,Pama Pomegranate,1.75L,46.95,4.00,42.95
0220     ,png/PinnacleWhipped.png								,Pinnacle Whipped,1.75L,46.95,4.00,42.95
0221     ,png/PopcornSutton_whitewhiskey.png								,Popcorn Sutton White Whiskey,1.75L,46.95,4.00,42.95
0222     ,png/PurusOrganicWheatVodka.png								,Purus Organic Wheat Vodka,1.75L,46.95,4.00,42.95
0223     ,png/RichAndRareCanadian.png								,Rich And Rare Canadian,1.75L,46.95,4.00,42.95
0224     ,png/SkinnygirlSweetAriata.png								,Skinnygirl Sweet Ariata,1.75L,46.95,4.00,42.95
0225     ,png/SmirnoffVanilla.png								,Smirnoff Vanilla,1.75L,46.95,4.00,42.95
0226     ,png/Smirnoff_kissed_caramel.png								,Smirnoff Kissed Caramel,1.75L,46.95,4.00,42.95
0227     ,png/StolichnayaGold.png								,Stolichnaya Gold,1.75L,46.95,4.00,42.95
0228     ,png/Tres Generaciones Plata.png								,Tres Generaciones Plata,1.75L,46.95,4.00,42.95
0229     ,png/TresGeneracionesTequilaAnejo.png								,Tres Generaciones Tequila Anejo,1.75L,46.95,4.00,42.95
0230     ,png/Tuaca.png								,Tuaca,1.75L,46.95,4.00,42.95
0231     ,png/Tullamore-Dew-12.png								,Tullamore Dew 12,1.75L,46.95,4.00,42.95
0232     ,png/TullamoreDew12Y.png								,Tullamore Dew 12Y,1.75L,46.95,4.00,42.95
0233     ,png/TwentyGrandVodka.png								,Twenty Grand Vodka,1.75L,46.95,4.00,42.95
0234     ,png/WildTurkey101.png								,Wild Turkey 101,1.75L,46.95,4.00,42.95
0235     ,png/WildTurkeyAmericanHoney.png								,Wild Turkey American Honey,1.75L,46.95,4.00,42.95
0236     ,png/WildTurkeyRusselsReserve.png								,Wild Turkey Russels Reserve,1.75L,46.95,4.00,42.95
0237     ,png/ZayaRum.png								,Zaya Rum,1.75L,46.95,4.00,42.95
0238     ,png/herradura-blanco.png								,Herradura Blanco,1.75L,46.95,4.00,42.95
0239     ,png/jim_beam_choice.png								,Jim Beam Choice,1.75L,46.95,4.00,42.95
0240     ,png/rich&rare_reserve.png								,Rich & Rare Reserve,1.75L,46.95,4.00,42.95
0241     ,png/southern-comfort-100.jpg,Southern Comfort 100,1.75L,46.95,4.00,42.95
0242     ,png/southern-comfort-100.png								,Southern Comfort 100,1.75L,46.95,4.00,42.95
0243     ,png/stolichnaya-100-proof.png								,Stolichnaya 100 proof,1.75L,46.95,4.00,42.95
0244     ,png/Avion Espresso.png								,Avion Espresso,1.75L,46.95,4.00,42.95
0245     ,png/Avion Reposado.png								,Avion Reposado,1.75L,46.95,4.00,42.95
0246     ,png/AvionSilver.png								,Avion Silver,1.75L,46.95,4.00,42.95
0247     ,png/BakersBourbon.png								,Bakers Bourbon,1.75L,46.95,4.00,42.95
0248     ,png/Barrel Rested Cardinal Gin.png								,Barrel Rested Cardinal Gin,1.75L,46.95,4.00,42.95
0249     ,png/Beefeater.png								,Beefeater,1.75L,46.95,4.00,42.95
0250     ,png/Blackheart Spiced Rum.png								,Blackheart Spiced Rum,1.75L,46.95,4.00,42.95
0251     ,png/BluecoatGin.png								,Bluecoat Gin,1.75L,46.95,4.00,42.95
0252     ,png/BulleitRye.png								,Bulleit Rye,1.75L,46.95,4.00,42.95
0253     ,png/CalicoJack CoconutRum.png								,Calico Jack Coconut Rum,1.75L,46.95,4.00,42.95
0254     ,png/CatdaddySpicedMoonshine _horrible.png								,Catdaddy Spiced Moonshine  horrible,1.75L,46.95,4.00,42.95
0255     ,png/CazadoresReposado.png								,Cazadores Reposado,1.75L,46.95,4.00,42.95
0256     ,png/Chambord_Royale.png								,Chambord Royale,1.75L,46.95,4.00,42.95
0257     ,png/ChivasRegal.png								,Chivas Regal,1.75L,46.95,4.00,42.95
0258     ,png/CourvoisierXO.png								,Courvoisier XO,1.75L,46.95,4.00,42.95
0259     ,png/DUsseVSOP.png								,Dusse VSOP,1.75L,46.95,4.00,42.95
0260     ,png/DeepEddyVodka.png								,Deep Eddy Vodka,1.75L,46.95,4.00,42.95
0261     ,png/Deep_eddy_rubyred.png								,Deep Eddy Ruby Red,1.75L,46.95,4.00,42.95
0262     ,png/Dewars12Y.png								,Dewars 12Y,1.75L,46.95,4.00,42.95
0263     ,png/DoubleCross_Vodka2.png								,Double Cross Vodka2,1.75L,46.95,4.00,42.95
0264     ,png/ElijahCraig.png								,ElijahCraig,1.75L,46.95,4.00,42.95
0265     ,png/Elijah_Craig.png								,Elijah Craig,1.75L,46.95,4.00,42.95
0266     ,png/EvanWilliamsBlack.png								,Evan Williams Black,1.75L,46.95,4.00,42.95
0267     ,png/Evan Williams Honey Reserve.png								,Evan Williams Honey Reserve,1.75L,46.95,4.00,42.95
0268     ,png/EvanWilliamsSingleBarrelVintage.png								,EvanWilliams Single Barrel Vintage,1.75L,46.95,4.00,42.95
0269     ,png/FireballCinnamonWhiskey.png								,Fireball Cinnamon Whiskey,1.75L,46.95,4.00,42.95
0270     ,png/Firefly-Lemonade.png								,Firefly Lemonade,1.75L,46.95,4.00,42.95
0271     ,png/FourRosesSingleBarrel.png								,FourRoses Single Barrel,1.75L,46.95,4.00,42.95
0272     ,png/Frangelico.png								,Frangelico,1.75L,46.95,4.00,42.95
0273     ,png/Fratello.png								,Fratello,1.75L,46.95,4.00,42.95
0274     ,png/GDickel_12.png								,GDickel 12,1.75L,46.95,4.00,42.95
0275     ,png/GentlemanJack.png								,Gentleman Jack,1.75L,46.95,4.00,42.95
0276     ,png/GlenevitNadurra16Y.png								,Glenevit Nadurra 16Y,1.75L,46.95,4.00,42.95
0277     ,png/GlenevitNadurraOloroso.png								,Glenevit Nadurra Oloroso,1.75L,46.95,4.00,42.95
0278     ,png/GoslingsBlackSeal.png								,Goslings Black Seal,1.75L,46.95,4.00,42.95
0279     ,png/HighlandPark.png								,Highland Park,1.75L,46.95,4.00,42.95
0280     ,png/HighlandPark12Y.png								,Highland Park 12Y,1.75L,46.95,4.00,42.95
0281     ,png/HornitosBlackBarrel.png								,Hornitos Black Barrel,1.75L,46.95,4.00,42.95
0282     ,png/JeffersonsSmallBatchBourbon.png								,Jeffersons Small Batch Bourbon,1.75L,46.95,4.00,42.95
0283     ,png/Jim-Beam-KY-Fire.png								,Jim-Beam-KY-Fire,1.75L,46.95,4.00,42.95
0284     ,png/Jim Beam Black.png								,Jim Beam Black,1.75L,46.95,4.00,42.95
0285     ,png/JimBeamKYFire.png								,JimBeam KY Fire,1.75L,46.95,4.00,42.95
0286     ,png/Kapali Coffee.png								,Kapali Coffee,1.75L,46.95,4.00,42.95
0287     ,png/KnobCreek.png								,Knob Creek,1.75L,46.95,4.00,42.95
0288     ,png/KnobCreekRye.png								,Knob Creek Rye,1.75L,46.95,4.00,42.95
0289     ,png/KnobCreekSingleBarrelReserve.png								,Knob Creek Single Barrel Reserve,1.75L,46.95,4.00,42.95
0290     ,png/LarcenyBourbon.png								,Larceny Bourbon,1.75L,46.95,4.00,42.95
0291     ,png/LexingtonBourbon.png								,Lexington Bourbon,1.75L,46.95,4.00,42.95
0292     ,png/Lunazul Reposado.png								,Lunazul Reposado,1.75L,46.95,4.00,42.95
0293     ,png/Macallan12Y.png								,Macallan 12Y,1.75L,46.95,4.00,42.95
0294     ,png/Makers46.png								,Makers 46,1.75L,46.95,4.00,42.95
0295     ,png/Margaritaville Skinny Margarita.png								,Margaritaville Skinny Margarita,1.75L,46.95,4.00,42.95
0296     ,png/Midnight Moon Apple Pie.png								,Midnight Moon Apple Pie,1.75L,46.95,4.00,42.95
0297     ,png/MidnightMoonCranberry.png								,Midnight Moon Cranberry,1.75L,46.95,4.00,42.95
0298     ,png/MilagroSilver.png								,Milagro Silver,1.75L,46.95,4.00,42.95
0299     ,png/MonkeyShoulder.png								,Monkey Shoulder,1.75L,46.95,4.00,42.95
0300     ,png/PamaPomegranate.png								,Pama Pomegranate,1.75L,46.95,4.00,42.95
0301     ,png/PinnacleWhipped.png								,Pinnacle Whipped,1.75L,46.95,4.00,42.95
0302     ,png/PopcornSutton_whitewhiskey.png								,Popcorn Sutton White Whiskey,1.75L,46.95,4.00,42.95
0303     ,png/PurusOrganicWheatVodka.png								,Purus Organic Wheat Vodka,1.75L,46.95,4.00,42.95
0304     ,png/RichAndRareCanadian.png								,Rich And Rare Canadian,1.75L,46.95,4.00,42.95
0305     ,png/SkinnygirlSweetAriata.png								,Skinnygirl Sweet Ariata,1.75L,46.95,4.00,42.95
0306     ,png/SmirnoffVanilla.png								,Smirnoff Vanilla,1.75L,46.95,4.00,42.95
0307     ,png/Smirnoff_kissed_caramel.png								,Smirnoff Kissed Caramel,1.75L,46.95,4.00,42.95
0308     ,png/StolichnayaGold.png								,Stolichnaya Gold,1.75L,46.95,4.00,42.95
0309     ,png/Tres Generaciones Plata.png								,Tres Generaciones Plata,1.75L,46.95,4.00,42.95
0310     ,png/TresGeneracionesTequilaAnejo.png								,Tres Generaciones Tequila Anejo,1.75L,46.95,4.00,42.95
0311     ,png/Tuaca.png								,Tuaca,1.75L,46.95,4.00,42.95
0312     ,png/Tullamore-Dew-12.png								,Tullamore Dew 12,1.75L,46.95,4.00,42.95
0313     ,png/TullamoreDew12Y.png								,Tullamore Dew 12Y,1.75L,46.95,4.00,42.95
0314     ,png/TwentyGrandVodka.png								,Twenty Grand Vodka,1.75L,46.95,4.00,42.95
0315     ,png/WildTurkey101.png								,Wild Turkey 101,1.75L,46.95,4.00,42.95
0316     ,png/WildTurkeyAmericanHoney.png								,Wild Turkey American Honey,1.75L,46.95,4.00,42.95
0317     ,png/WildTurkeyRusselsReserve.png								,Wild Turkey Russels Reserve,1.75L,46.95,4.00,42.95
0318     ,png/ZayaRum.png								,Zaya Rum,1.75L,46.95,4.00,42.95
0319     ,png/herradura-blanco.png								,Herradura Blanco,1.75L,46.95,4.00,42.95
0320     ,png/jim_beam_choice.png								,Jim Beam Choice,1.75L,46.95,4.00,42.95
0321     ,png/rich&rare_reserve.png								,Rich & Rare Reserve,1.75L,46.95,4.00,42.95
0322     ,png/southern-comfort-100.jpg,Southern Comfort 100,1.75L,46.95,4.00,42.95
0323     ,png/southern-comfort-100.png								,Southern Comfort 100,1.75L,46.95,4.00,42.95
0324     ,png/stolichnaya-100-proof.png								,Stolichnaya 100 proof,1.75L,46.95,4.00,42.95
0325     ,png/Avion Espresso.png								,Avion Espresso,1.75L,46.95,4.00,42.95
0326     ,png/Avion Reposado.png								,Avion Reposado,1.75L,46.95,4.00,42.95
0327     ,png/AvionSilver.png								,Avion Silver,1.75L,46.95,4.00,42.95
0328     ,png/BakersBourbon.png								,Bakers Bourbon,1.75L,46.95,4.00,42.95
0329     ,png/Barrel Rested Cardinal Gin.png								,Barrel Rested Cardinal Gin,1.75L,46.95,4.00,42.95
0330     ,png/Beefeater.png								,Beefeater,1.75L,46.95,4.00,42.95
0331     ,png/Blackheart Spiced Rum.png								,Blackheart Spiced Rum,1.75L,46.95,4.00,42.95
0332     ,png/BluecoatGin.png								,Bluecoat Gin,1.75L,46.95,4.00,42.95
0333     ,png/BulleitRye.png								,Bulleit Rye,1.75L,46.95,4.00,42.95
0334     ,png/CalicoJack CoconutRum.png								,Calico Jack Coconut Rum,1.75L,46.95,4.00,42.95
0335     ,png/CatdaddySpicedMoonshine _horrible.png								,Catdaddy Spiced Moonshine  horrible,1.75L,46.95,4.00,42.95
0336     ,png/CazadoresReposado.png								,Cazadores Reposado,1.75L,46.95,4.00,42.95
0337     ,png/Chambord_Royale.png								,Chambord Royale,1.75L,46.95,4.00,42.95
0338     ,png/ChivasRegal.png								,Chivas Regal,1.75L,46.95,4.00,42.95
0339     ,png/CourvoisierXO.png								,Courvoisier XO,1.75L,46.95,4.00,42.95
0340     ,png/DUsseVSOP.png								,Dusse VSOP,1.75L,46.95,4.00,42.95
0341     ,png/DeepEddyVodka.png								,Deep Eddy Vodka,1.75L,46.95,4.00,42.95
0342     ,png/Deep_eddy_rubyred.png								,Deep Eddy Ruby Red,1.75L,46.95,4.00,42.95
0343     ,png/Dewars12Y.png								,Dewars 12Y,1.75L,46.95,4.00,42.95
0344     ,png/DoubleCross_Vodka2.png								,Double Cross Vodka2,1.75L,46.95,4.00,42.95
0345     ,png/ElijahCraig.png								,ElijahCraig,1.75L,46.95,4.00,42.95
0346     ,png/Elijah_Craig.png								,Elijah Craig,1.75L,46.95,4.00,42.95
0347     ,png/EvanWilliamsBlack.png								,Evan Williams Black,1.75L,46.95,4.00,42.95
0348     ,png/Evan Williams Honey Reserve.png								,Evan Williams Honey Reserve,1.75L,46.95,4.00,42.95
0349     ,png/EvanWilliamsSingleBarrelVintage.png								,EvanWilliams Single Barrel Vintage,1.75L,46.95,4.00,42.95
0350     ,png/FireballCinnamonWhiskey.png								,Fireball Cinnamon Whiskey,1.75L,46.95,4.00,42.95
0351     ,png/Firefly-Lemonade.png								,Firefly Lemonade,1.75L,46.95,4.00,42.95
0352     ,png/FourRosesSingleBarrel.png								,FourRoses Single Barrel,1.75L,46.95,4.00,42.95
0353     ,png/Frangelico.png								,Frangelico,1.75L,46.95,4.00,42.95
0354     ,png/Fratello.png								,Fratello,1.75L,46.95,4.00,42.95
0355     ,png/GDickel_12.png								,GDickel 12,1.75L,46.95,4.00,42.95
0356     ,png/GentlemanJack.png								,Gentleman Jack,1.75L,46.95,4.00,42.95
0357     ,png/GlenevitNadurra16Y.png								,Glenevit Nadurra 16Y,1.75L,46.95,4.00,42.95
0358     ,png/GlenevitNadurraOloroso.png								,Glenevit Nadurra Oloroso,1.75L,46.95,4.00,42.95
0359     ,png/GoslingsBlackSeal.png								,Goslings Black Seal,1.75L,46.95,4.00,42.95
0360     ,png/HighlandPark.png								,Highland Park,1.75L,46.95,4.00,42.95
0361     ,png/HighlandPark12Y.png								,Highland Park 12Y,1.75L,46.95,4.00,42.95
0362     ,png/HornitosBlackBarrel.png								,Hornitos Black Barrel,1.75L,46.95,4.00,42.95
0363     ,png/JeffersonsSmallBatchBourbon.png								,Jeffersons Small Batch Bourbon,1.75L,46.95,4.00,42.95
0364     ,png/Jim-Beam-KY-Fire.png								,Jim-Beam-KY-Fire,1.75L,46.95,4.00,42.95
0365     ,png/Jim Beam Black.png								,Jim Beam Black,1.75L,46.95,4.00,42.95
0366     ,png/JimBeamKYFire.png								,JimBeam KY Fire,1.75L,46.95,4.00,42.95
0367     ,png/Kapali Coffee.png								,Kapali Coffee,1.75L,46.95,4.00,42.95
0368     ,png/KnobCreek.png								        ,Knob Creek,1.75L,46.95,4.00,42.95
0369     ,png/KnobCreekRye.png								,Knob Creek Rye,1.75L,46.95,4.00,42.95
0370     ,png/KnobCreekSingleBarrelReserve.png								,Knob Creek Single Barrel Reserve,1.75L,46.95,4.00,42.95
0371     ,png/LarcenyBourbon.png								,Larceny Bourbon,1.75L,46.95,4.00,42.95
0372     ,png/LexingtonBourbon.png								,Lexington Bourbon,1.75L,46.95,4.00,42.95
0373     ,png/Lunazul Reposado.png								,Lunazul Reposado,1.75L,46.95,4.00,42.95
0374     ,png/Macallan12Y.png								,Macallan 12Y,1.75L,46.95,4.00,42.95
0375     ,png/Makers46.png								        ,Makers 46,1.75L,46.95,4.00,42.95
0376     ,png/Margaritaville Skinny Margarita.png								,Margaritaville Skinny Margarita,1.75L,46.95,4.00,42.95
0377     ,png/Midnight Moon Apple Pie.png								,Midnight Moon Apple Pie,1.75L,46.95,4.00,42.95
0378     ,png/MidnightMoonCranberry.png								,Midnight Moon Cranberry,1.75L,46.95,4.00,42.95
0379     ,png/MilagroSilver.png								,Milagro Silver,1.75L,46.95,4.00,42.95
0380     ,png/MonkeyShoulder.png								,Monkey Shoulder,1.75L,46.95,4.00,42.95
0381     ,png/PamaPomegranate.png								,Pama Pomegranate,1.75L,46.95,4.00,42.95
0382     ,png/PinnacleWhipped.png								,Pinnacle Whipped,1.75L,46.95,4.00,42.95
0383     ,png/PopcornSutton_whitewhiskey.png								,Popcorn Sutton White Whiskey,1.75L,46.95,4.00,42.95
0384     ,png/PurusOrganicWheatVodka.png								,Purus Organic Wheat Vodka,1.75L,46.95,4.00,42.95
0385     ,png/RichAndRareCanadian.png								,Rich And Rare Canadian,1.75L,46.95,4.00,42.95
0386     ,png/SkinnygirlSweetAriata.png								,Skinnygirl Sweet Ariata,1.75L,46.95,4.00,42.95
0387     ,png/SmirnoffVanilla.png								,Smirnoff Vanilla,1.75L,46.95,4.00,42.95
0388     ,png/Smirnoff_kissed_caramel.png								,Smirnoff Kissed Caramel,1.75L,46.95,4.00,42.95
0389     ,png/StolichnayaGold.png								,Stolichnaya Gold,1.75L,46.95,4.00,42.95
0390     ,png/Tres Generaciones Plata.png								,Tres Generaciones Plata,1.75L,46.95,4.00,42.95
0391     ,png/TresGeneracionesTequilaAnejo.png								,Tres Generaciones Tequila Anejo,1.75L,46.95,4.00,42.95
0392     ,png/Tuaca.png								        ,Tuaca,1.75L,46.95,4.00,42.95
0393     ,png/Tullamore-Dew-12.png								,Tullamore Dew 12,1.75L,46.95,4.00,42.95
0394     ,png/TullamoreDew12Y.png								,Tullamore Dew 12Y,1.75L,46.95,4.00,42.95
0395     ,png/TwentyGrandVodka.png								,Twenty Grand Vodka,1.75L,46.95,4.00,42.95
0396     ,png/WildTurkey101.png								,Wild Turkey 101,1.75L,46.95,4.00,42.95
0397     ,png/WildTurkeyAmericanHoney.png								,Wild Turkey American Honey,1.75L,46.95,4.00,42.95
0398     ,png/WildTurkeyRusselsReserve.png								,Wild Turkey Russels Reserve,1.75L,46.95,4.00,42.95
0399     ,png/ZayaRum.png								        ,Zaya Rum,1.75L,46.95,4.00,42.95
0400     ,png/herradura-blanco.png								,Herradura Blanco,1.75L,46.95,4.00,42.95
0401     ,png/jim_beam_choice.png								,Jim Beam Choice,1.75L,46.95,4.00,42.95
0402     ,png/rich&rare_reserve.png								,Rich & Rare Reserve,1.75L,46.95,4.00,42.95
0403     ,png/southern-comfort-100.jpg,Southern Comfort 100     ,1.75L,46.95,4.00,42.95
0404     ,png/southern-comfort-100.png								,Southern Comfort 100,1.75L,46.95,4.00,42.95
0405     ,png/stolichnaya-100-proof.png								,Stolichnaya 100 proof,1.75L,46.95,4.00,42.95
,,,,,,
,,,,,,
,,,,,,
http://www.convertcsv.com/csv-to-json.htm,,,,,,


0001
0002
0003
0004
0005
0006
0007
0008
0009
0010
0011
0012
0013
0014
0015
0016
0017
0018
0019
0020
0021
0022
0023
0024
0025
0026
0027
0028
0029
0030
0031
0032
0033
0034
0035
0036
0037
0038
0039
0040
0041
0042
0043
0044
0045
0046
0047
0048
0049
0050
0051
0052
0053
0054
0055
0056
0057
0058
0059
0060
0061
0062
0063
0064
0065
0066
0067
0068
0069
0070
0071
0072
0073
0074
0075
0076
0077
0078
0079
0080
0081
0082
0083
0084
0085
0086
0087
0088
0089
0090
0091
0092
0093
0094
0095
0096
0097
0098
0099
0100
0101
0102
0103
0104
0105
0106
0107
0108
0109
0110
0111
0112
0113
0114
0115
0116
0117
0118
0119
0120
0121
0122
0123
0124
0125
0126
0127
0128
0129
0130
0131
0132
0133
0134
0135
0136
0137
0138
0139
0140
0141
0142
0143
0144
0145
0146
0147
0148
0149
0150
0151
0152
0153
0154
0155
0156
0157
0158
0159
0160
0161
0162
0163
0164
0165
0166
0167
0168
0169
0170
0171
0172
0173
0174
0175
0176
0177
0178
0179
0180
0181
0182
0183
0184
0185
0186
0187
0188
0189
0190
0191
0192
0193
0194
0195
0196
0197
0198
0199
0200
0201
0202
0203
0204
0205
0206
0207
0208
0209
0210
0211
0212
0213
0214
0215
0216
0217
0218
0219
0220
0221
0222
0223
0224
0225
0226
0227
0228
0229
0230
0231
0232
0233
0234
0235
0236
0237
0238
0239
0240
0241
0242
0243
0244
0245
0246
0247
0248
0249
0250
0251
0252
0253
0254
0255
0256
0257
0258
0259
0260
0261
0262
0263
0264
0265
0266
0267
0268
0269
0270
0271
0272
0273
0274
0275
0276
0277
0278
0279
0280
0281
0282
0283
0284
0285
0286
0287
0288
0289
0290
0291
0292
0293
0294
0295
0296
0297
0298
0299
0300
0301
0302
0303
0304
0305
0306
0307
0308
0309
0310
0311
0312
0313
0314
0315
0316
0317
0318
0319
0320
0321
0322
0323
0324
0325
0326
0327
0328
0329
0330
0331
0332
0333
0334
0335
0336
0337
0338
0339
0340
0341
0342
0343
0344
0345
0346
0347
0348
0349
0350
0351
0352
0353
0354
0355
0356
0357
0358
0359
0360
0361
0362
0363
0364
0365
0366
0367
0368
0369
0370
0371
0372
0373
0374
0375
0376
0377
0378
0379
0380
0381
0382
0383
0384
0385
0386
0387
0388
0389
0390
0391
0392
0393
0394
0395
0396
0397
0398
0399
0400
0401
0402
0403
0404
0405