[
  {
    "id":"0001",
    "url_image":"png/Avion Espresso.png",
    "name":"Avion Espresso",
    "size":"1.75L",
    "regprice":"46.95",
    "savings":"4.00",
    "saleprice":"42.95"
  },
  {
    "id":"0002",
    "url_image":"png/Avion Reposado.png",
    "name":"Avion Reposado",
    "size":"1.75L",
    "regprice":"46.95",
    "savings":"4.00",
    "saleprice":"42.95"
  },
  {
    "id":"0003",
    "url_image":"png/AvionSilver.png",
    "name":"Avion Silver",
    "size":"1.75L",
    "regprice":"46.95",
    "savings":"4.00",
    "saleprice":"42.95"
  },
  {
    "id":"0004",
    "url_image":"png/BakersBourbon.png",
    "name":"Bakers Bourbon",
    "size":"1.75L",
    "regprice":"46.95",
    "savings":"4.00",
    "saleprice":"42.95"
  },
  {
    "id":"0005",
    "url_image":"png/Barrel Rested Cardinal Gin.png",
    "name":"Barrel Rested Cardinal Gin",
    "size":"1.75L",
    "regprice":"46.95",
    "savings":"4.00",
    "saleprice":"42.95"
  },
  {
    "id":"0006",
    "url_image":"png/Beefeater.png",
    "name":"Beefeater",
    "size":"1.75L",
    "regprice":"46.95",
    "savings":"4.00",
    "saleprice":"42.95"
  },
  {
    "id":"0007",
    "url_image":"png/Blackheart Spiced Rum.png",
    "name":"Blackheart Spiced Rum",
    "size":"1.75L",
    "regprice":"46.95",
    "savings":"4.00",
    "saleprice":"42.95"
  },
  {
    "id":"0008",
    "url_image":"png/BluecoatGin.png",
    "name":"Bluecoat Gin",
    "size":"1.75L",
    "regprice":"46.95",
    "savings":"4.00",
    "saleprice":"42.95"
  },
  {
    "id":"0009",
    "url_image":"png/BulleitRye.png",
    "name":"Bulleit Rye",
    "size":"1.75L",
    "regprice":"46.95",
    "savings":"4.00",
    "saleprice":"42.95"
  },
  {
    "id":"0010",
    "url_image":"png/CalicoJack CoconutRum.png",
    "name":"Calico Jack Coconut Rum",
    "size":"1.75L",
    "regprice":"46.95",
    "savings":"4.00",
    "saleprice":"42.95"
  },
  {
    "id":"0011",
    "url_image":"png/CatdaddySpicedMoonshine _horrible.png",
    "name":"Catdaddy Spiced Moonshine  horrible",
    "size":"1.75L",
    "regprice":"46.95",
    "savings":"4.00",
    "saleprice":"42.95"
  },
  {
    "id":"0012",
    "url_image":"png/CazadoresReposado.png",
    "name":"Cazadores Reposado",
    "size":"1.75L",
    "regprice":"46.95",
    "savings":"4.00",
    "saleprice":"42.95"
  },
  {
    "id":"0013",
    "url_image":"png/Chambord_Royale.png",
    "name":"Chambord Royale",
    "size":"1.75L",
    "regprice":"46.95",
    "savings":"4.00",
    "saleprice":"42.95"
  },
  {
    "id":"0014",
    "url_image":"png/ChivasRegal.png",
    "name":"Chivas Regal",
    "size":"1.75L",
    "regprice":"46.95",
    "savings":"4.00",
    "saleprice":"42.95"
  },
  {
    "id":"0015",
    "url_image":"png/CourvoisierXO.png",
    "name":"Courvoisier XO",
    "size":"1.75L",
    "regprice":"46.95",
    "savings":"4.00",
    "saleprice":"42.95"
  },
  {
    "id":"0016",
    "url_image":"png/DUsseVSOP.png",
    "name":"Dusse VSOP",
    "size":"1.75L",
    "regprice":"46.95",
    "savings":"4.00",
    "saleprice":"42.95"
  },
  {
    "id":"0017",
    "url_image":"png/DeepEddyVodka.png",
    "name":"Deep Eddy Vodka",
    "size":"1.75L",
    "regprice":"46.95",
    "savings":"4.00",
    "saleprice":"42.95"
  },
  {
    "id":"0018",
    "url_image":"png/Deep_eddy_rubyred.png",
    "name":"Deep Eddy Ruby Red",
    "size":"1.75L",
    "regprice":"46.95",
    "savings":"4.00",
    "saleprice":"42.95"
  },
  {
    "id":"0019",
    "url_image":"png/Dewars12Y.png",
    "name":"Dewars 12Y",
    "size":"1.75L",
    "regprice":"46.95",
    "savings":"4.00",
    "saleprice":"42.95"
  }
]